; Engine configuration file.
; It's best edited using the editor UI and not directly,
; since the parameters that go here are not all obvious.
;
; Format:
;   [section] ; section goes between []
;   param=value ; assign values to parameters

config_version=5

[application]

config/name="gs-ludumdare"
config/description="None"
config/version="0.0.0"
run/main_scene="res://gs_ludumdare_work/work_ludum.tscn"
config/features=PackedStringArray("4.3")

[autoload]

Logger="*res://addons/gs_logger/logger.gd"
Game="*res://addons/gs_game/game.gd"
ECS="*res://addons/gs_ecs/ecs.gd"
WindowManager="*res://addons/gs_window_manager/window_manager.tscn"
SceneManager="*res://addons/gs_scene_manager/scene_manager.tscn"
LudumDare="*res://addons/gs_ludumdare/ludum_dare.tscn"

[display]

window/size/resizable=false
window/size/test_width=800
window/size/test_height=600

[editor_plugins]

enabled=PackedStringArray("res://addons/gs_ecs/plugin.cfg", "res://addons/gs_game/plugin.cfg", "res://addons/gs_logger/plugin.cfg", "res://addons/gs_scene_manager/plugin.cfg", "res://addons/gs_window_manager/plugin.cfg")

[filesystem]

import/blender/enabled=false

[logger]

level="DEBUG"
