[gd_scene load_steps=2 format=3]

[ext_resource type="Script" path="res://addons/gs_ludumdare/ui/label_copyright.gd" id="1"]

[node name="LabelCopyright" type="RichTextLabel"]
anchors_preset = 12
anchor_top = 1.0
anchor_right = 1.0
anchor_bottom = 1.0
offset_top = -27.0
grow_horizontal = 2
grow_vertical = 0
bbcode_enabled = true
text = "COPYRIGHT"
script = ExtResource("1")
