[gd_scene load_steps=2 format=3]

[ext_resource type="Script" path="res://addons/gs_ludumdare/ui/label_message.gd" id="1"]

[node name="LabelMessage" type="RichTextLabel"]
anchors_preset = 10
anchor_right = 1.0
offset_bottom = 29.0
grow_horizontal = 2
bbcode_enabled = true
text = "MESSAGE"
script = ExtResource("1")
