[gd_scene load_steps=2 format=3]

[ext_resource type="Script" path="res://addons/gs_ludumdare/ui/menu_button.gd" id="1"]

[node name="MenuButton" type="Button"]
text = "BUTTON"
script = ExtResource("1")

[connection signal="pressed" from="." to="." method="_on_MenuButton_pressed"]
