[gd_scene load_steps=5 format=3 uid="uid://cuxjkhvixqh1v"]

[ext_resource type="Script" path="res://addons/gs_ludumdare/scenes/ludum_scores.gd" id="1"]
[ext_resource type="PackedScene" path="res://addons/gs_ludumdare/ui/menu_button.tscn" id="2"]
[ext_resource type="PackedScene" path="res://addons/gs_ludumdare/ui/score_panel.tscn" id="2_rspn5"]
[ext_resource type="PackedScene" path="res://addons/gs_ludumdare/ui/label_copyright.tscn" id="4"]

[node name="LudumScores" type="Node2D"]
script = ExtResource("1")
score_panel = ExtResource("2_rspn5")

[node name="Node" type="Node" parent="."]

[node name="MenuButton" parent="Node" instance=ExtResource("2")]
text = "HOME"
to_state = 3

[node name="Title" type="RichTextLabel" parent="Node"]
anchors_preset = 5
anchor_left = 0.5
anchor_right = 0.5
bbcode_enabled = true
text = "SCORES"

[node name="ScoreList" type="VBoxContainer" parent="Node"]
anchors_preset = 8
anchor_left = 0.5
anchor_top = 0.5
anchor_right = 0.5
anchor_bottom = 0.5
grow_horizontal = 2
grow_vertical = 2
alignment = 1

[node name="LabelCopyright" parent="Node" instance=ExtResource("4")]
offset_top = -28.0
